<?xml version="1.0" encoding="utf-8"?>
<!-- Generator: Adobe Illustrator 22.0.0, SVG Export Plug-In . SVG Version: 6.00 Build 0)  -->
<svg version="1.1" baseProfile="tiny" id="Capa_1" xmlns="http://www.w3.org/2000/svg" xmlns:xlink="http://www.w3.org/1999/xlink"
	 x="0px" y="0px" viewBox="0 0 1558.2 619.3" xml:space="preserve">
<title>RPi-Logo-Landscape-Reg-SCREEN</title>
<g>
	<path d="M237.3,0c-3.2,0.1-6.6,1.3-10.5,4.3c-9.5-3.6-18.7-4.9-27,2.5c-12.7-1.6-16.9,1.7-20,5.6c-2.8-0.1-20.9-2.8-29.2,9.4
		c-20.9-2.4-27.5,12.1-20,25.7c-4.3,6.5-8.7,13,1.3,25.4c-3.5,6.9-1.3,14.4,7,23.5c-2.2,9.7,2.1,16.6,9.9,21.9
		c-1.4,13.3,12.4,21,16.5,23.8c1.6,7.8,4.8,15.1,20.6,19.1c2.6,11.5,12.1,13.5,21.3,16c-30.4,17.4-56.4,40.3-56.2,96.4l-4.4,7.8
		c-34.8,20.8-66.1,87.9-17.2,142.4c3.2,17,8.6,29.3,13.3,42.9c7.2,54.6,53.8,80.2,66.1,83.2c18,13.5,37.2,26.3,63.2,35.3
		c24.5,24.9,51,34.4,77.7,34.3h1.2c26.7,0,53.2-9.5,77.7-34.3c26-9,45.2-21.8,63.2-35.3c12.3-3,58.9-28.6,66.1-83.2
		c4.8-13.6,10.1-25.8,13.3-42.9c49-54.5,17.7-121.5-17.2-142.4l-4.5-7.8c0.2-56.1-25.9-79-56.2-96.4c9.2-2.4,18.7-4.4,21.3-16
		c15.8-4,19.1-11.4,20.7-19.1c4.1-2.8,18-10.5,16.5-23.8c7.7-5.3,12-12.2,9.9-21.9c8.3-9.1,10.5-16.6,7-23.5
		c10-12.4,5.6-18.8,1.3-25.3c7.5-13.6,0.9-28.1-20-25.7c-8.3-12.2-26.4-9.4-29.2-9.4c-3.1-3.9-7.3-7.3-20-5.7
		c-8.3-7.4-17.5-6.1-27-2.5c-11.3-8.8-18.8-1.7-27.3,0.9c-13.7-4.4-16.9,1.7-23.6,4.1c-14.9-3.1-19.5,3.7-26.6,10.8l-8.3-0.2
		c-22.5,13.1-33.7,39.7-37.6,53.3c-4-13.7-15.2-40.2-37.6-53.3l-8.3,0.2c-7.2-7.1-11.7-13.9-26.6-10.8c-6.7-2.4-9.8-8.5-23.5-4.1
		C248.5,3.5,243.3-0.2,237.3,0L237.3,0z"/>
	<path fill="#8CC04B" d="M192.9,57.5c59.7,30.3,94.4,54.8,113.4,75.7c-9.7,38.4-60.5,40.2-79.1,39.1c3.8-1.7,7-3.8,8.1-7
		c-4.7-3.3-21.2-0.3-32.7-6.7c4.4-0.9,6.5-1.8,8.6-5c-10.9-3.4-22.6-6.4-29.5-12c3.7,0,7.2,0.8,12.1-2.5
		c-9.8-5.2-20.2-9.3-28.3-17.2c5-0.1,10.5,0,12.1-1.9c-8.3-5-16-11.1-22.7-18.2c7.1,0.8,10,0.1,11.8-1.1c-6.8-6.8-15.3-12.6-19.4-21
		c5.2,1.8,10,2.5,13.5-0.2c-2.3-5.1-12.1-8.1-17.8-20c5.5,0.5,11.4,1.2,12.5,0c-2.6-10.3-7-16.1-11.3-22c11.8-0.2,29.7,0,28.9-0.9
		l-7.3-7.4c11.5-3.1,23.3,0.5,31.9,3.1c3.9-3-0.1-6.8-4.8-10.6c9.1,1.1,18.1,3.3,26.7,6.6c4.3-3.8-2.8-7.6-6.2-11.4
		c15.1,2.8,21.6,6.8,28,10.8c4.6-4.4,0.3-8.1-2.9-11.9c11.4,4.2,17.3,9.6,23.5,14.9c2.1-2.8,5.3-4.8,1.4-11.6
		c7.3,4,13.7,9.5,18.7,16c5-3.1,3-7.5,3-11.4c8.4,6.8,13.8,13.9,20.3,21c1.3-0.9,2.5-4.2,3.5-9.2c20.1,19.2,48.5,67.6,7.3,86.8
		C281.2,93.8,239.3,73.1,192.9,57.5L192.9,57.5z"/>
	<path fill="#8CC04B" d="M509.1,57.5c-59.7,30.3-94.4,54.8-113.4,75.7c9.7,38.4,60.5,40.2,79.1,39.1c-3.8-1.7-7-3.8-8.1-7
		c4.7-3.3,21.2-0.3,32.7-6.7c-4.4-0.9-6.5-1.8-8.6-5c10.9-3.4,22.6-6.4,29.5-12c-3.7,0-7.2,0.8-12.1-2.5c9.8-5.2,20.2-9.3,28.3-17.2
		c-5-0.1-10.5,0-12.1-1.9c8.4-5,16-11.1,22.7-18.2c-7.1,0.8-10,0.1-11.8-1.1c6.8-6.8,15.3-12.6,19.4-21c-5.2,1.8-10,2.5-13.5-0.2
		c2.3-5.1,12.1-8.1,17.8-20c-5.5,0.5-11.4,1.2-12.5,0c2.6-10.3,7-16.1,11.3-22.1c-11.8-0.2-29.7,0-28.9-0.9l7.3-7.4
		c-11.5-3.1-23.3,0.5-31.9,3.1c-3.9-3,0.1-6.8,4.8-10.6c-9.1,1.1-18.1,3.3-26.7,6.6c-4.3-3.8,2.8-7.6,6.2-11.4
		c-15.1,2.8-21.6,6.8-28,10.8c-4.6-4.4-0.3-8.1,2.9-11.9c-11.4,4.1-17.3,9.5-23.5,14.8c-2.1-2.8-5.3-4.8-1.4-11.6
		c-7.3,4-13.7,9.5-18.7,16.1c-5-3.1-3-7.5-3-11.4c-8.4,6.8-13.8,13.9-20.3,21c-1.3-1-2.5-4.2-3.5-9.2c-20.1,19.2-48.5,67.6-7.3,86.8
		C420.8,93.8,462.7,73,509.1,57.5L509.1,57.5z"/>
	<path fill="#C7053D" d="M423.2,448.8c0.2,35.9-31.6,65.1-71.1,65.3s-71.7-28.7-71.9-64.6c0-0.2,0-0.5,0-0.7
		c-0.2-35.9,31.6-65.1,71.1-65.3s71.7,28.7,71.9,64.6C423.2,448.4,423.2,448.6,423.2,448.8z"/>
	<path fill="#C7053D" d="M311.7,263.3c29.6,19.1,35,62.5,11.9,96.8s-65.7,46.7-95.4,27.6l0,0c-29.6-19.1-35-62.5-11.9-96.8
		S282.1,244.2,311.7,263.3L311.7,263.3z"/>
	<path fill="#C7053D" d="M391.7,259.9c-29.6,19.1-35,62.5-11.9,96.8s65.7,46.7,95.4,27.6l0,0c29.6-19.1,35-62.5,11.9-96.8
		S421.3,240.8,391.7,259.9z"/>
	<path fill="#C7053D" d="M165.5,294.8c32-8.5,10.8,130.3-15.2,119C121.6,391.1,112.4,324.6,165.5,294.8z"/>
	<path fill="#C7053D" d="M535.1,293.1c-32-8.4-10.8,130.4,15.2,119C579,389.4,588.2,323,535.1,293.1z"/>
	<path fill="#C7053D" d="M427.8,189.5c55.2-9.2,101.1,23.1,99.3,82.1C525.3,294.2,407.5,192.9,427.8,189.5z"/>
	<path fill="#C7053D" d="M275.3,187.8c-55.2-9.2-101.1,23.1-99.3,82.1C177.9,292.5,295.7,191.1,275.3,187.8z"/>
	<path fill="#C7053D" d="M351.4,174c-33-0.8-64.6,24.1-64.6,38.5c-0.1,17.6,26,35.6,64.9,36c39.6,0.3,64.9-14.4,65.1-32.5
		C416.8,195.5,380.6,173.7,351.4,174L351.4,174z"/>
	<path fill="#C7053D" d="M353.9,534.3c28.7-1.2,67.3,9.1,67.3,22.8c0.5,13.3-35,43.5-69.3,42.9c-35.5,1.5-70.3-28.7-69.9-39.1
		C281.6,545.6,325.4,533.6,353.9,534.3L353.9,534.3z"/>
	<path fill="#C7053D" d="M247.6,452.9c20.5,24.3,29.8,66.9,12.7,79.5c-16.2,9.6-55.3,5.6-83.2-33.8c-18.8-33.1-16.4-66.8-3.2-76.6
		C193.6,410.2,224.1,426.1,247.6,452.9L247.6,452.9z"/>
	<path fill="#C7053D" d="M453.5,445.3c-22.1,25.5-34.5,72.1-18.3,87.1c15.4,11.7,56.9,10,87.5-31.8c22.2-28.1,14.8-75,2.1-87.5
		C505.9,398.7,478.8,417.1,453.5,445.3L453.5,445.3z"/>
	<path fill="#1D1D1B" d="M1406,344.5c0-4.6-2.2-8.6-6.7-12s-12.7-6.4-24.8-8.9c-18.4-3.7-32.3-9.3-41.7-16.6s-14-17.3-14-30
		c0-13.4,5.6-24.9,16.9-34.2c11.3-9.4,26.4-14,45.3-14c19.9,0,35.7,4.7,47.5,14c11.8,9.3,17.4,21.1,16.9,35.3l-0.3,0.9h-40.7
		c0-6.2-2-11.3-6-15.3s-9.8-5.9-17.5-5.9c-6.8,0-12.2,1.7-16.1,5c-3.8,3-5.9,7.6-5.8,12.5c0,4.7,2.3,9,6.2,11.7
		c4.1,3.1,12.4,5.8,24.8,8.2c19.2,3.8,33.5,9.5,42.8,16.9s14,17.7,14,30.8c0,14-6,25.5-18,34.4s-27.8,13.4-47.6,13.3
		c-20.7,0-37.2-5.3-49.2-15.8c-12.1-10.5-17.8-22.5-17.2-36l0.3-0.9h38.5c0.3,8.4,3,14.4,8.2,18.1s12,5.6,20.3,5.6
		c7.8,0,13.7-1.5,17.8-4.6C1403.9,354.2,1406.1,349.5,1406,344.5z"/>
	<path fill="#1D1D1B" d="M1116.2,269.3l-15.4-0.4c-6.2,0-11.4,1.3-15.4,3.9c-4.1,2.7-7.3,6.5-9.2,11V389h-41.9V233.1h39l1.9,23
		c3.6-8.2,8.4-14.5,14.2-19.1c7.4-5.7,16.8-8,25.9-6.3c1.8,0.3,3.6,0.7,5.4,1.2L1116.2,269.3z"/>
	<path fill="#1D1D1B" d="M698.2,314.5v76.1h-42.1V180.8h83.6c24.1,0,43.1,6.1,56.9,18.4s20.7,28.5,20.8,48.6
		c0,20.1-6.9,36.2-20.8,48.4s-32.8,18.3-56.9,18.3L698.2,314.5z M698.2,282.1h41.5c11.7,0,20.6-3.2,26.7-9.6s9.1-14.5,9.1-24.4
		c0-10.1-3-18.4-9-25c-6-6.6-14.9-9.9-26.7-9.9h-41.5L698.2,282.1z"/>
	<path fill="#1D1D1B" d="M1236.7,390.6h-42.1V165.8h42.1V390.6z M1268.3,207.9v42.1h-31.6v-42.1H1268.3z M1194.7,207.9v42.1h-31.5
		v-42.1H1194.7z"/>
	<path fill="#1D1D1B" d="M852.9,368.4c-13.6-13.9-21.9-33.6-21.9-55.8c0-21.6,8.2-40.3,21.9-55.5c14.3-14.9,32.7-24.1,54.5-24.1
		c20.9,0,39.9,9.2,52.9,24.1c14.3,15.2,22.2,33.9,22.2,55.5c0,22.2-7.9,41.8-22.2,55.8c-13,14.9-32,24.1-52.9,24.1
		C885.6,392.5,867.2,383.3,852.9,368.4z M865.6,312.6c0,13.6,4.1,24.7,11.4,33.6c7.9,7.6,18.4,11.7,30.4,11.7
		c11.1,0,21.2-4.1,29.2-11.7c7.9-8.9,12.4-20,12.4-33.6c0-13-4.4-24.4-12.4-33c-7.9-7-18.1-12-29.2-12c-12,0-22.5,5.1-30.4,12
		C869.7,288.2,865.6,299.6,865.6,312.6z"/>
</g>
</svg>
