<?xml version="1.0" encoding="utf-8"?>
<!-- Generator: Adobe Illustrator 16.0.0, SVG Export Plug-In . SVG Version: 6.00 Build 0)  -->
<!DOCTYPE svg PUBLIC "-//W3C//DTD SVG 1.1//EN" "http://www.w3.org/Graphics/SVG/1.1/DTD/svg11.dtd">
<svg version="1.1"
	 id="svg48" xmlns:dc="http://purl.org/dc/elements/1.1/" xmlns:cc="http://creativecommons.org/ns#" xmlns:rdf="http://www.w3.org/1999/02/22-rdf-syntax-ns#" xmlns:svg="http://www.w3.org/2000/svg" xmlns:sodipodi="http://sodipodi.sourceforge.net/DTD/sodipodi-0.dtd" xmlns:inkscape="http://www.inkscape.org/namespaces/inkscape" sodipodi:docname="logo.svg" inkscape:version="0.92.3 (2405546, 2018-03-11)"
	 xmlns="http://www.w3.org/2000/svg" xmlns:xlink="http://www.w3.org/1999/xlink" x="0px" y="0px" width="600px" height="100px"
	 viewBox="0 0 600 100" enable-background="new 0 0 600 100" xml:space="preserve">
<sodipodi:namedview  id="namedview50" guidetolerance="10" objecttolerance="10" inkscape:cy="49.218496" inkscape:cx="283.46452" gridtolerance="10" inkscape:zoom="1.7760955" fit-margin-left="0" borderopacity="1" fit-margin-top="0" bordercolor="#666666" pagecolor="#ffffff" showgrid="false" inkscape:window-maximized="1" inkscape:window-y="-8" inkscape:window-x="-8" inkscape:window-height="1027" inkscape:window-width="1920" fit-margin-bottom="0" fit-margin-right="0" inkscape:current-layer="svg48" inkscape:pageshadow="2" inkscape:pageopacity="0">
	</sodipodi:namedview>
<rect id="rect864" x="0.42" y="0.42" fill="#4C504E" stroke="#666666" stroke-width="0.8411" width="599.159" height="99.16"/>
<g id="layer1" transform="matrix(10.943788,0,0,10.943788,-306.28117,-2099.3598)" inkscape:label="Calque 1">
	
		<g id="g5106" transform="matrix(0.10351411,0,0,0.10351411,25.72942,189.51196)" inkscape:export-ydpi="96" inkscape:export-xdpi="96">
		<path id="path67" inkscape:connector-curvature="0" fill="#FF0000" d="M52.783,58.699c-3.678,0-6.694-2.99-6.694-6.694
			c0-3.704,2.99-6.694,6.694-6.694s6.694,2.99,6.694,6.694C59.476,55.709,56.487,58.699,52.783,58.699z M52.783,48.063
			c-2.169,0-3.942,1.773-3.942,3.942c0,2.17,1.773,3.943,3.942,3.943c2.17,0,3.942-1.773,3.942-3.943
			C56.725,49.836,54.952,48.063,52.783,48.063z"/>
		<path id="path69" inkscape:connector-curvature="0" fill="#FF5DDC" d="M75.167,59.123c-0.053,0-0.132,0-0.185,0L64.821,57.8
			c-0.37-0.053-0.688-0.238-0.899-0.529c-0.212-0.291-0.318-0.662-0.265-1.006l1.322-10.16c0.106-0.741,0.794-1.297,1.535-1.191
			l10.159,1.323c0.371,0.053,0.688,0.238,0.9,0.529s0.317,0.662,0.265,1.006l-1.323,10.16C76.436,58.62,75.854,59.123,75.167,59.123
			z M66.568,55.233l7.408,0.979l0.978-7.408l-7.408-0.979L66.568,55.233z"/>
		<path id="path73" inkscape:connector-curvature="0" fill="#027FE1" d="M52.968,41.978c-0.079,0-0.185,0-0.291-0.027
			c-0.741-0.159-1.217-0.873-1.059-1.614l2.17-10.398c0.159-0.741,0.872-1.217,1.614-1.058c0.741,0.159,1.217,0.873,1.059,1.614
			l-2.17,10.398C54.185,41.528,53.603,41.977,52.968,41.978L52.968,41.978z"/>
		<path id="path75" inkscape:connector-curvature="0" fill="#027FE1" d="M59.265,37.85c-0.079,0-0.185,0-0.291-0.027l-10.398-2.169
			c-0.741-0.159-1.217-0.873-1.058-1.614c0.159-0.741,0.872-1.217,1.614-1.058l10.398,2.17c0.741,0.159,1.217,0.873,1.059,1.614
			C60.456,37.4,59.901,37.85,59.265,37.85L59.265,37.85z"/>
		<path id="path77" inkscape:connector-curvature="0" fill="#8AEE49" d="M66.409,41.237c-0.344,0-0.661-0.132-0.9-0.344
			c-0.37-0.318-0.529-0.82-0.423-1.297l1.878-8.943c0.106-0.476,0.45-0.873,0.9-1.006c0.476-0.159,0.979-0.053,1.349,0.265
			l6.853,6.033c0.37,0.318,0.528,0.82,0.423,1.297c-0.106,0.476-0.45,0.873-0.9,1.032l-8.731,2.884
			C66.7,41.21,66.541,41.237,66.409,41.237z M69.134,33.511l-0.899,4.312l4.207-1.402L69.134,33.511z"/>
	</g>
	<path fill="#808080" d="M35.588,198.708c-0.011-0.511-0.025-0.673-0.071-0.869c-0.161-0.673-0.432-1.189-0.839-1.594
		c-0.544-0.541-1.192-0.59-1.968-0.148l-0.216,0.123c0,0-0.154,0-0.339,0c-0.185,0-0.339,0-0.339,0l-0.216-0.123
		c-0.776-0.443-1.424-0.394-1.968,0.148c-0.407,0.405-0.678,0.921-0.839,1.594c-0.047,0.197-0.06,0.358-0.071,0.869
		c-0.019,0.749,0.008,1.009,0.126,1.249c0.134,0.279,0.41,0.47,0.67,0.47c0.314,0,0.867-0.424,1.258-0.965l0.167-0.23h1.214h1.214
		l0.167,0.23c0.391,0.541,0.943,0.965,1.257,0.965c0.26,0,0.536-0.191,0.67-0.47C35.58,199.717,35.607,199.457,35.588,198.708z
		 M31.25,197.729H30.88v0.369c0,0.115-0.096,0.21-0.21,0.21c-0.115,0-0.211-0.096-0.211-0.21v-0.369H30.09
		c-0.115,0-0.211-0.096-0.211-0.211c0-0.115,0.096-0.21,0.211-0.21h0.369v-0.369c0-0.115,0.096-0.21,0.211-0.21
		c0.115,0,0.21,0.095,0.21,0.21v0.369h0.369c0.115,0,0.211,0.096,0.211,0.21C31.457,197.636,31.364,197.729,31.25,197.729z
		 M33.967,196.575c0.178,0,0.323,0.145,0.323,0.323c0,0.178-0.145,0.323-0.323,0.323c-0.178,0-0.323-0.145-0.323-0.323
		C33.647,196.72,33.789,196.575,33.967,196.575z M32.92,197.199c0-0.178,0.145-0.323,0.323-0.323c0.178,0,0.322,0.145,0.322,0.323
		c0,0.178-0.145,0.322-0.322,0.322C33.065,197.521,32.92,197.377,32.92,197.199z M33.59,198.29c-0.178,0-0.322-0.145-0.322-0.323
		c0-0.178,0.145-0.322,0.322-0.322c0.178,0,0.323,0.145,0.323,0.322C33.912,198.145,33.767,198.29,33.59,198.29z M34.267,197.967
		c-0.178,0-0.323-0.145-0.323-0.322c0-0.178,0.145-0.323,0.323-0.323c0.178,0,0.323,0.145,0.323,0.323
		C34.59,197.825,34.445,197.967,34.267,197.967z"/>
</g>
</svg>
